Completed/cache.vcd
$date
	Sun Jan 17 23:31:16 2021
$end
$version
	Icarus Verilog
$end
$timescale
	1s
$end
$scope module cache_tb $end
$var wire 1 ! two_sig_hit $end
$var wire 32 " out [31:0] $end
$var wire 1 # dir_sig_hit $end
$var reg 32 $ address [31:0] $end
$var reg 1 % clk $end
$var reg 32 & data [31:0] $end
$var reg 1 ' finish $end
$var reg 1 ( mode $end
$var reg 1 ) reset $end
$var integer 32 * i [31:0] $end
$var integer 32 + k [31:0] $end
$var integer 32 , l [31:0] $end
$var integer 32 - local_usages_end [31:0] $end
$var integer 32 . local_usages_start [31:0] $end
$var integer 32 / num_of_tests [31:0] $end
$var integer 32 0 radius_end [31:0] $end
$var integer 32 1 radius_range [31:0] $end
$var integer 32 2 radius_start [31:0] $end
$scope module instance1 $end
$var wire 32 3 address [31:0] $end
$var wire 1 % clk $end
$var wire 32 4 data [31:0] $end
$var wire 1 ' finish $end
$var wire 1 ( mode $end
$var wire 32 5 out [31:0] $end
$var wire 1 ) reset $end
$var reg 1 # dir_sig_hit $end
$var reg 5 6 index [4:0] $end
$var reg 32 7 prev_address [31:0] $end
$var reg 32 8 prev_data [31:0] $end
$var reg 1 9 prev_mode $end
$var reg 7 : tag [6:0] $end
$var reg 32 ; temp_out [31:0] $end
$var reg 1 ! two_sig_hit $end
$var integer 32 < d_h_writer [31:0] $end
$var real 1 = dir_map_hits $end
$var real 1 > dir_map_misses $end
$var integer 32 ? i [31:0] $end
$var integer 32 @ imp_writer [31:0] $end
$var integer 32 A t_h_writer [31:0] $end
$var integer 32 B total_reqs [31:0] $end
$var real 1 C two_way_hits $end
$var real 1 D two_way_misses $end
$scope begin initialization $end
$var integer 32 E i [31:0] $end
$upscope $end
$upscope $end
$upscope $end
$enddefinitions $end
#0
$dumpvars
b1000000 E
r0 D
r0 C
b0 B
b10000000000000000000000000000011 A
b10000000000000000000000000000101 @
b1000000000000 ?
r0 >
r0 =
b10000000000000000000000000000100 <
bx ;
b0 :
09
b0 8
b0 7
b0 6
bx 5
bx 4
b101000010011 3
b101 2
b10000000000000000000000000000110 1
b100000 0
b1100100 /
b101 .
b111100 -
b0 ,
b101000001111 +
b101 *
0)
0(
0'
bx &
0%
b101000010011 $
0#
bx "
0!
$end
#5
r1 >
r1 D
b101000010011 "
b101000010011 5
b101000010011 ;
b10011 6
b101000 :
bx 8
b101000010011 7
b1 B
1%
#10
0%
b101000001111 $
b101000001111 3
b1 ,
#15
r2 >
r2 D
b101000001111 "
b101000001111 5
b101000001111 ;
b1111 6
b101000 :
b101000001111 7
b10 B
1%
#20
0%
b101000010001 $
b101000010001 3
b10 ,
#25
r3 >
r3 D
b101000010001 "
b101000010001 5
b101000010001 ;
b10001 6
b101000 :
b101000010001 7
b11 B
1%
#30
0%
b101000001011 $
b101000001011 3
b11 ,
#35
r4 >
r4 D
b101000001011 "
b101000001011 5
b101000001011 ;
b1011 6
b101000 :
b101000001011 7
b100 B
1%
#40
0%
b101000010000 $
b101000010000 3
b100 ,
#45
r5 >
r5 D
b101000010000 "
b101000010000 5
b101000010000 ;
b10000 6
b101000 :
b101000010000 7
b101 B
1%
#50
0%
b101000010001 $
b101000010001 3
b101 ,
#55
r1 =
1#
r1 C
1!
b101000010001 "
b101000010001 5
b101000010001 ;
b10001 6
b101000 :
b101000010001 7
b110 B
1%
#60
0%
b101000001101 $
b101000001101 3
b110 ,
#65
r6 >
0#
r6 D
0!
b101000001101 "
b101000001101 5
b101000001101 ;
b1101 6
b101000 :
b101000001101 7
b111 B
1%
#70
0%
b101000001011 $
b101000001011 3
b111 ,
#75
r2 =
1#
r2 C
1!
b101000001011 "
b101000001011 5
b101000001011 ;
b1011 6
b101000 :
b101000001011 7
b1000 B
1%
#80
0%
b101000001100 $
b101000001100 3
b1000 ,
#85
r7 >
0#
r7 D
0!
b101000001100 "
b101000001100 5
b101000001100 ;
b1100 6
b101000 :
b101000001100 7
b1001 B
1%
#90
0%
b101000010000 $
b101000010000 3
b1001 ,
#95
r3 =
1#
r3 C
1!
b101000010000 "
b101000010000 5
b101000010000 ;
b10000 6
b101000 :
b101000010000 7
b1010 B
1%
#100
0%
b101000010011 $
b101000010011 3
b1010 ,
#105
r4 =
r4 C
b101000010011 "
b101000010011 5
b101000010011 ;
b10011 6
b101000 :
b101000010011 7
b1011 B
1%
#110
0%
b101000001111 $
b101000001111 3
b1011 ,
#115
r5 =
r5 C
b101000001111 "
b101000001111 5
b101000001111 ;
b1111 6
b101000 :
b101000001111 7
b1100 B
1%
#120
0%
b101000010001 $
b101000010001 3
b1100 ,
#125
r6 =
r6 C
b101000010001 "
b101000010001 5
b101000010001 ;
b10001 6
b101000 :
b101000010001 7
b1101 B
1%
#130
0%
b101000010000 $
b101000010000 3
b1101 ,
#135
r7 =
r7 C
b101000010000 "
b101000010000 5
b101000010000 ;
b10000 6
b101000 :
b101000010000 7
b1110 B
1%
#140
0%
b101000001111 $
b101000001111 3
b1110 ,
#145
r8 =
r8 C
b101000001111 "
b101000001111 5
b101000001111 ;
b1111 6
b101000 :
b101000001111 7
b1111 B
1%
#150
0%
b1111 ,
#155
1%
#160
0%
b101000001101 $
b101000001101 3
b10000 ,
#165
r9 =
r9 C
b101000001101 "
b101000001101 5
b101000001101 ;
b1101 6
b101000 :
b101000001101 7
b10000 B
1%
#170
0%
b101000010011 $
b101000010011 3
b10001 ,
#175
r10 =
r10 C
b101000010011 "
b101000010011 5
b101000010011 ;
b10011 6
b101000 :
b101000010011 7
b10001 B
1%
#180
0%
b101000010010 $
b101000010010 3
b10010 ,
#185
r8 >
0#
r8 D
0!
b101000010010 "
b101000010010 5
b101000010010 ;
b10010 6
b101000 :
b101000010010 7
b10010 B
1%
#190
0%
b10011 ,
#195
1%
#200
0%
b101000001111 $
b101000001111 3
b10100 ,
#205
r11 =
1#
r11 C
1!
b101000001111 "
b101000001111 5
b101000001111 ;
b1111 6
b101000 :
b101000001111 7
b10011 B
1%
#210
0%
b101000001011 $
b101000001011 3
b10101 ,
#215
r12 =
r12 C
b101000001011 "
b101000001011 5
b101000001011 ;
b1011 6
b101000 :
b101000001011 7
b10100 B
1%
#220
0%
b101000001111 $
b101000001111 3
b10110 ,
#225
r13 =
r13 C
b101000001111 "
b101000001111 5
b101000001111 ;
b1111 6
b101000 :
b101000001111 7
b10101 B
1%
#230
0%
b101000001100 $
b101000001100 3
b10111 ,
#235
r14 =
r14 C
b101000001100 "
b101000001100 5
b101000001100 ;
b1100 6
b101000 :
b101000001100 7
b10110 B
1%
#240
0%
b101000001011 $
b101000001011 3
b11000 ,
#245
r15 =
r15 C
b101000001011 "
b101000001011 5
b101000001011 ;
b1011 6
b101000 :
b101000001011 7
b10111 B
1%
#250
0%
b101000001111 $
b101000001111 3
b11001 ,
#255
r16 =
r16 C
b101000001111 "
b101000001111 5
b101000001111 ;
b1111 6
b101000 :
b101000001111 7
b11000 B
1%
#260
0%
b101000001100 $
b101000001100 3
b11010 ,
#265
r17 =
r17 C
b101000001100 "
b101000001100 5
b101000001100 ;
b1100 6
b101000 :
b101000001100 7
b11001 B
1%
#270
0%
b101000001111 $
b101000001111 3
b11011 ,
#275
r18 =
r18 C
b101000001111 "
b101000001111 5
b101000001111 ;
b1111 6
b101000 :
b101000001111 7
b11010 B
1%
#280
0%
b101000001011 $
b101000001011 3
b11100 ,
#285
r19 =
r19 C
b101000001011 "
b101000001011 5
b101000001011 ;
b1011 6
b101000 :
b101000001011 7
b11011 B
1%
#290
0%
b101000001110 $
b101000001110 3
b11101 ,
#295
r9 >
0#
r9 D
0!
b101000001110 "
b101000001110 5
b101000001110 ;
b1110 6
b101000 :
b101000001110 7
b11100 B
1%
#300
0%
b101000001111 $
b101000001111 3
b11110 ,
#305
r20 =
1#
r20 C
1!
b101000001111 "
b101000001111 5
b101000001111 ;
b1111 6
b101000 :
b101000001111 7
b11101 B
1%
#310
0%
b101000010011 $
b101000010011 3
b11111 ,
#315
r21 =
r21 C
b101000010011 "
b101000010011 5
b101000010011 ;
b10011 6
b101000 :
b101000010011 7
b11110 B
1%
#320
0%
b101000010010 $
b101000010010 3
b100000 ,
#325
r22 =
r22 C
b101000010010 "
b101000010010 5
b101000010010 ;
b10010 6
b101000 :
b101000010010 7
b11111 B
1%
#330
0%
b101000001011 $
b101000001011 3
b100001 ,
#335
r23 =
r23 C
b101000001011 "
b101000001011 5
b101000001011 ;
b1011 6
b101000 :
b101000001011 7
b100000 B
1%
#340
0%
b101000010000 $
b101000010000 3
b100010 ,
#345
r24 =
r24 C
b101000010000 "
b101000010000 5
b101000010000 ;
b10000 6
b101000 :
b101000010000 7
b100001 B
1%
#350
0%
b101000010001 $
b101000010001 3
b100011 ,
#355
r25 =
r25 C
b101000010001 "
b101000010001 5
b101000010001 ;
b10001 6
b101000 :
b101000010001 7
b100010 B
1%
#360
0%
b101000001101 $
b101000001101 3
b100100 ,
#365
r26 =
r26 C
b101000001101 "
b101000001101 5
b101000001101 ;
b1101 6
b101000 :
b101000001101 7
b100011 B
1%
#370
0%
b101000010010 $
b101000010010 3
b100101 ,
#375
r27 =
r27 C
b101000010010 "
b101000010010 5
b101000010010 ;
b10010 6
b101000 :
b101000010010 7
b100100 B
1%
#380
0%
b101000001111 $
b101000001111 3
b100110 ,
#385
r28 =
r28 C
b101000001111 "
b101000001111 5
b101000001111 ;
b1111 6
b101000 :
b101000001111 7
b100101 B
1%
#390
0%
b101000001110 $
b101000001110 3
b100111 ,
#395
r29 =
r29 C
b101000001110 "
b101000001110 5
b101000001110 ;
b1110 6
b101000 :
b101000001110 7
b100110 B
1%
#400
0%
b101000010010 $
b101000010010 3
b101000 ,
#405
r30 =
r30 C
b101000010010 "
b101000010010 5
b101000010010 ;
b10010 6
b101000 :
b101000010010 7
b100111 B
1%
#410
0%
b101000001100 $
b101000001100 3
b101001 ,
#415
r31 =
r31 C
b101000001100 "
b101000001100 5
b101000001100 ;
b1100 6
b101000 :
b101000001100 7
b101000 B
1%
#420
0%
b101000010010 $
b101000010010 3
b101010 ,
#425
r32 =
r32 C
b101000010010 "
b101000010010 5
b101000010010 ;
b10010 6
b101000 :
b101000010010 7
b101001 B
1%
#430
0%
b101000001110 $
b101000001110 3
b101011 ,
#435
r33 =
r33 C
b101000001110 "
b101000001110 5
b101000001110 ;
b1110 6
b101000 :
b101000001110 7
b101010 B
1%
#440
0%
b101000001100 $
b101000001100 3
b101100 ,
#445
r34 =
r34 C
b101000001100 "
b101000001100 5
b101000001100 ;
b1100 6
b101000 :
b101000001100 7
b101011 B
1%
#450
0%
b101000010000 $
b101000010000 3
b101101 ,
#455
r35 =
r35 C
b101000010000 "
b101000010000 5
b101000010000 ;
b10000 6
b101000 :
b101000010000 7
b101100 B
1%
#460
0%
b101000001011 $
b101000001011 3
b101110 ,
#465
r36 =
r36 C
b101000001011 "
b101000001011 5
b101000001011 ;
b1011 6
b101000 :
b101000001011 7
b101101 B
1%
#470
0%
b101000010001 $
b101000010001 3
b101111 ,
#475
r37 =
r37 C
b101000010001 "
b101000010001 5
b101000010001 ;
b10001 6
b101000 :
b101000010001 7
b101110 B
1%
#480
0%
b101000010000 $
b101000010000 3
b110000 ,
#485
r38 =
r38 C
b101000010000 "
b101000010000 5
b101000010000 ;
b10000 6
b101000 :
b101000010000 7
b101111 B
1%
#490
0%
b101000001110 $
b101000001110 3
b110001 ,
#495
r39 =
r39 C
b101000001110 "
b101000001110 5
b101000001110 ;
b1110 6
b101000 :
b101000001110 7
b110000 B
1%
#500
0%
b101000001111 $
b101000001111 3
b110010 ,
#505
r40 =
r40 C
b101000001111 "
b101000001111 5
b101000001111 ;
b1111 6
b101000 :
b101000001111 7
b110001 B
1%
#510
0%
b110011 ,
#515
1%
#520
0%
b101000001110 $
b101000001110 3
b110100 ,
#525
r41 =
r41 C
b101000001110 "
b101000001110 5
b101000001110 ;
b1110 6
b101000 :
b101000001110 7
b110010 B
1%
#530
0%
b101000001011 $
b101000001011 3
b110101 ,
#535
r42 =
r42 C
b101000001011 "
b101000001011 5
b101000001011 ;
b1011 6
b101000 :
b101000001011 7
b110011 B
1%
#540
0%
b101000001100 $
b101000001100 3
b110110 ,
#545
r43 =
r43 C
b101000001100 "
b101000001100 5
b101000001100 ;
b1100 6
b101000 :
b101000001100 7
b110100 B
1%
#550
0%
b101000010000 $
b101000010000 3
b110111 ,
#555
r44 =
r44 C
b101000010000 "
b101000010000 5
b101000010000 ;
b10000 6
b101000 :
b101000010000 7
b110101 B
1%
#560
0%
b101000010011 $
b101000010011 3
b111000 ,
#565
r45 =
r45 C
b101000010011 "
b101000010011 5
b101000010011 ;
b10011 6
b101000 :
b101000010011 7
b110110 B
1%
#570
0%
b101000001011 $
b101000001011 3
b111001 ,
#575
r46 =
r46 C
b101000001011 "
b101000001011 5
b101000001011 ;
b1011 6
b101000 :
b101000001011 7
b110111 B
1%
#580
0%
b101000001111 $
b101000001111 3
b111010 ,
#585
r47 =
r47 C
b101000001111 "
b101000001111 5
b101000001111 ;
b1111 6
b101000 :
b101000001111 7
b111000 B
1%
#590
0%
b101000001011 $
b101000001011 3
b111011 ,
#595
r48 =
r48 C
b101000001011 "
b101000001011 5
b101000001011 ;
b1011 6
b101000 :
b101000001011 7
b111001 B
1%
#600
0%
b101000010010 $
b101000010010 3
b111100 ,
#605
r49 =
r49 C
b101000010010 "
b101000010010 5
b101000010010 ;
b10010 6
b101000 :
b101000010010 7
b111010 B
1%
#610
0%
b101000001111 $
b101000001111 3
b111101 ,
#615
r50 =
r50 C
b101000001111 "
b101000001111 5
b101000001111 ;
b1111 6
b101000 :
b101000001111 7
b111011 B
1%
#620
0%
b111110 ,
#625
1%
#630
0%
b111111 ,
#635
1%
#640
0%
b101000001100 $
b101000001100 3
b1000000 ,
#645
r51 =
r51 C
b101000001100 "
b101000001100 5
b101000001100 ;
b1100 6
b101000 :
b101000001100 7
b111100 B
1%
#650
0%
b101000001011 $
b101000001011 3
b1000001 ,
#655
r52 =
r52 C
b101000001011 "
b101000001011 5
b101000001011 ;
b1011 6
b101000 :
b101000001011 7
b111101 B
1%
#660
0%
b101000001110 $
b101000001110 3
b1000010 ,
#665
r53 =
r53 C
b101000001110 "
b101000001110 5
b101000001110 ;
b1110 6
b101000 :
b101000001110 7
b111110 B
1%
#670
0%
b101000010010 $
b101000010010 3
b1000011 ,
#675
r54 =
r54 C
b101000010010 "
b101000010010 5
b101000010010 ;
b10010 6
b101000 :
b101000010010 7
b111111 B
1%
#680
0%
b101000001011 $
b101000001011 3
b1000100 ,
#685
r55 =
r55 C
b101000001011 "
b101000001011 5
b101000001011 ;
b1011 6
b101000 :
b101000001011 7
b1000000 B
1%
#690
0%
b101000001101 $
b101000001101 3
b1000101 ,
#695
r56 =
r56 C
b101000001101 "
b101000001101 5
b101000001101 ;
b1101 6
b101000 :
b101000001101 7
b1000001 B
1%
#700
0%
b101000001100 $
b101000001100 3
b1000110 ,
#705
r57 =
r57 C
b101000001100 "
b101000001100 5
b101000001100 ;
b1100 6
b101000 :
b101000001100 7
b1000010 B
1%
#710
0%
b101000001101 $
b101000001101 3
b1000111 ,
#715
r58 =
r58 C
b101000001101 "
b101000001101 5
b101000001101 ;
b1101 6
b101000 :
b101000001101 7
b1000011 B
1%
#720
0%
b101000010010 $
b101000010010 3
b1001000 ,
#725
r59 =
r59 C
b101000010010 "
b101000010010 5
b101000010010 ;
b10010 6
b101000 :
b101000010010 7
b1000100 B
1%
#730
0%
b101000010011 $
b101000010011 3
b1001001 ,
#735
r60 =
r60 C
b101000010011 "
b101000010011 5
b101000010011 ;
b10011 6
b101000 :
b101000010011 7
b1000101 B
1%
#740
0%
b101000010001 $
b101000010001 3
b1001010 ,
#745
r61 =
r61 C
b101000010001 "
b101000010001 5
b101000010001 ;
b10001 6
b101000 :
b101000010001 7
b1000110 B
1%
#750
0%
b1001011 ,
#755
1%
#760
0%
b101000001011 $
b101000001011 3
b1001100 ,
#765
r62 =
r62 C
b101000001011 "
b101000001011 5
b101000001011 ;
b1011 6
b101000 :
b101000001011 7
b1000111 B
1%
#770
0%
b101000010010 $
b101000010010 3
b1001101 ,
#775
r63 =
r63 C
b101000010010 "
b101000010010 5
b101000010010 ;
b10010 6
b101000 :
b101000010010 7
b1001000 B
1%
#780
0%
b101000001111 $
b101000001111 3
b1001110 ,
#785
r64 =
r64 C
b101000001111 "
b101000001111 5
b101000001111 ;
b1111 6
b101000 :
b101000001111 7
b1001001 B
1%
#790
0%
b101000010000 $
b101000010000 3
b1001111 ,
#795
r65 =
r65 C
b101000010000 "
b101000010000 5
b101000010000 ;
b10000 6
b101000 :
b101000010000 7
b1001010 B
1%
#800
0%
b101000001011 $
b101000001011 3
b1010000 ,
#805
r66 =
r66 C
b101000001011 "
b101000001011 5
b101000001011 ;
b1011 6
b101000 :
b101000001011 7
b1001011 B
1%
#810
0%
b101000010010 $
b101000010010 3
b1010001 ,
#815
r67 =
r67 C
b101000010010 "
b101000010010 5
b101000010010 ;
b10010 6
b101000 :
b101000010010 7
b1001100 B
1%
#820
0%
b101000001011 $
b101000001011 3
b1010010 ,
#825
r68 =
r68 C
b101000001011 "
b101000001011 5
b101000001011 ;
b1011 6
b101000 :
b101000001011 7
b1001101 B
1%
#830
0%
b101000001101 $
b101000001101 3
b1010011 ,
#835
r69 =
r69 C
b101000001101 "
b101000001101 5
b101000001101 ;
b1101 6
b101000 :
b101000001101 7
b1001110 B
1%
#840
0%
b101000010000 $
b101000010000 3
b1010100 ,
#845
r70 =
r70 C
b101000010000 "
b101000010000 5
b101000010000 ;
b10000 6
b101000 :
b101000010000 7
b1001111 B
1%
#850
0%
b101000001101 $
b101000001101 3
b1010101 ,
#855
r71 =
r71 C
b101000001101 "
b101000001101 5
b101000001101 ;
b1101 6
b101000 :
b101000001101 7
b1010000 B
1%
#860
0%
b101000010000 $
b101000010000 3
b1010110 ,
#865
r72 =
r72 C
b101000010000 "
b101000010000 5
b101000010000 ;
b10000 6
b101000 :
b101000010000 7
b1010001 B
1%
#870
0%
b101000001110 $
b101000001110 3
b1010111 ,
#875
r73 =
r73 C
b101000001110 "
b101000001110 5
b101000001110 ;
b1110 6
b101000 :
b101000001110 7
b1010010 B
1%
#880
0%
b1011000 ,
#885
1%
#890
0%
b101000001011 $
b101000001011 3
b1011001 ,
#895
r74 =
r74 C
b101000001011 "
b101000001011 5
b101000001011 ;
b1011 6
b101000 :
b101000001011 7
b1010011 B
1%
#900
0%
b101000001101 $
b101000001101 3
b1011010 ,
#905
r75 =
r75 C
b101000001101 "
b101000001101 5
b101000001101 ;
b1101 6
b101000 :
b101000001101 7
b1010100 B
1%
#910
0%
b101000010001 $
b101000010001 3
b1011011 ,
#915
r76 =
r76 C
b101000010001 "
b101000010001 5
b101000010001 ;
b10001 6
b101000 :
b101000010001 7
b1010101 B
1%
#920
0%
b101000001110 $
b101000001110 3
b1011100 ,
#925
r77 =
r77 C
b101000001110 "
b101000001110 5
b101000001110 ;
b1110 6
b101000 :
b101000001110 7
b1010110 B
1%
#930
0%
b101000001011 $
b101000001011 3
b1011101 ,
#935
r78 =
r78 C
b101000001011 "
b101000001011 5
b101000001011 ;
b1011 6
b101000 :
b101000001011 7
b1010111 B
1%
#940
0%
b101000001100 $
b101000001100 3
b1011110 ,
#945
r79 =
r79 C
b101000001100 "
b101000001100 5
b101000001100 ;
b1100 6
b101000 :
b101000001100 7
b1011000 B
1%
#950
0%
b101000001101 $
b101000001101 3
b1011111 ,
#955
r80 =
r80 C
b101000001101 "
b101000001101 5
b101000001101 ;
b1101 6
b101000 :
b101000001101 7
b1011001 B
1%
#960
0%
b101000010001 $
b101000010001 3
b1100000 ,
#965
r81 =
r81 C
b101000010001 "
b101000010001 5
b101000010001 ;
b10001 6
b101000 :
b101000010001 7
b1011010 B
1%
#970
0%
b101000010010 $
b101000010010 3
b1100001 ,
#975
r82 =
r82 C
b101000010010 "
b101000010010 5
b101000010010 ;
b10010 6
b101000 :
b101000010010 7
b1011011 B
1%
#980
0%
b101000010011 $
b101000010011 3
b1100010 ,
#985
r83 =
r83 C
b101000010011 "
b101000010011 5
b101000010011 ;
b10011 6
b101000 :
b101000010011 7
b1011100 B
1%
#990
0%
b101000010010 $
b101000010010 3
b1100011 ,
#995
r84 =
r84 C
b101000010010 "
b101000010010 5
b101000010010 ;
b10010 6
b101000 :
b101000010010 7
b1011101 B
1%
#1000
0%
1'
b0 $
b0 3
b1100100 ,
#1005
r10 >
0#
r10 D
0!
b0 "
b0 5
b0 ;
b0 6
b0 :
b0 7
b1011110 B
1%
#1010
0%
0'
1)
#1015
b0 B
r0 >
r0 =
r0 D
r0 C
b0 8
b1000000 ?
1%
#1020
0%
b101100011 $
b101100011 3
b0 ,
b101011110 +
0)
b110 *
#1025
r1 >
r1 D
b101100011 "
b101100011 5
b101100011 ;
b11 6
b101 :
bx 8
b101100011 7
b1 B
1%
#1030
0%
b101100001 $
b101100001 3
b1 ,
#1035
r2 >
r2 D
b101100001 "
b101100001 5
b101100001 ;
b1 6
b101 :
b101100001 7
b10 B
1%
#1040
0%
b101100010 $
b101100010 3
b10 ,
#1045
r3 >
r3 D
b101100010 "
b101100010 5
b101100010 ;
b10 6
b101 :
b101100010 7
b11 B
1%
#1050
0%
b101100001 $
b101100001 3
b11 ,
#1055
r1 =
1#
r1 C
1!
b101100001 "
b101100001 5
b101100001 ;
b1 6
b101 :
b101100001 7
b100 B
1%
#1060
0%
b101011110 $
b101011110 3
b100 ,
#1065
r4 >
0#
r4 D
0!
b101011110 "
b101011110 5
b101011110 ;
b11110 6
b101 :
b101011110 7
b101 B
1%
#1070
0%
b101011100 $
b101011100 3
b101 ,
#1075
r5 >
r5 D
b101011100 "
b101011100 5
b101011100 ;
b11100 6
b101 :
b101011100 7
b110 B
1%
#1080
0%
b101011111 $
b101011111 3
b110 ,
#1085
r6 >
r6 D
b101011111 "
b101011111 5
b101011111 ;
b11111 6
b101 :
b101011111 7
b111 B
1%
#1090
0%
b101011010 $
b101011010 3
b111 ,
#1095
r7 >
r7 D
b101011010 "
b101011010 5
b101011010 ;
b11010 6
b101 :
b101011010 7
b1000 B
1%
#1100
0%
b101100000 $
b101100000 3
b1000 ,
#1105
r8 >
r8 D
b101100000 "
b101100000 5
b101100000 ;
b0 6
b101 :
b101100000 7
b1001 B
1%
#1110
0%
b101011011 $
b101011011 3
b1001 ,
#1115
r9 >
r9 D
b101011011 "
b101011011 5
b101011011 ;
b11011 6
b101 :
b101011011 7
b1010 B
1%
#1120
0%
b101011110 $
b101011110 3
b1010 ,
#1125
r2 =
1#
r2 C
1!
b101011110 "
b101011110 5
b101011110 ;
b11110 6
b101 :
b101011110 7
b1011 B
1%
#1130
0%
b101100000 $
b101100000 3
b1011 ,
#1135
r3 =
r3 C
b101100000 "
b101100000 5
b101100000 ;
b0 6
b101 :
b101100000 7
b1100 B
1%
#1140
0%
b101011001 $
b101011001 3
b1100 ,
#1145
r10 >
0#
r10 D
0!
b101011001 "
b101011001 5
b101011001 ;
b11001 6
b101 :
b101011001 7
b1101 B
1%
#1150
0%
b101011111 $
b101011111 3
b1101 ,
#1155
r4 =
1#
r4 C
1!
b101011111 "
b101011111 5
b101011111 ;
b11111 6
b101 :
b101011111 7
b1110 B
1%
#1160
0%
b101011100 $
b101011100 3
b1110 ,
#1165
r5 =
r5 C
b101011100 "
b101011100 5
b101011100 ;
b11100 6
b101 :
b101011100 7
b1111 B
1%
#1170
0%
b101011011 $
b101011011 3
b1111 ,
#1175
r6 =
r6 C
b101011011 "
b101011011 5
b101011011 ;
b11011 6
b101 :
b101011011 7
b10000 B
1%
#1180
0%
b101011110 $
b101011110 3
b10000 ,
#1185
r7 =
r7 C
b101011110 "
b101011110 5
b101011110 ;
b11110 6
b101 :
b101011110 7
b10001 B
1%
#1190
0%
b10001 ,
#1195
1%
#1200
0%
b101011010 $
b101011010 3
b10010 ,
#1205
r8 =
r8 C
b101011010 "
b101011010 5
b101011010 ;
b11010 6
b101 :
b101011010 7
b10010 B
1%
#1210
0%
b101011101 $
b101011101 3
b10011 ,
#1215
r11 >
0#
r11 D
0!
b101011101 "
b101011101 5
b101011101 ;
b11101 6
b101 :
b101011101 7
b10011 B
1%
#1220
0%
b101011110 $
b101011110 3
b10100 ,
#1225
r9 =
1#
r9 C
1!
b101011110 "
b101011110 5
b101011110 ;
b11110 6
b101 :
b101011110 7
b10100 B
1%
#1230
0%
b101011101 $
b101011101 3
b10101 ,
#1235
r10 =
r10 C
b101011101 "
b101011101 5
b101011101 ;
b11101 6
b101 :
b101011101 7
b10101 B
1%
#1240
0%
b101100000 $
b101100000 3
b10110 ,
#1245
r11 =
r11 C
b101100000 "
b101100000 5
b101100000 ;
b0 6
b101 :
b101100000 7
b10110 B
1%
#1250
0%
b101100011 $
b101100011 3
b10111 ,
#1255
r12 =
r12 C
b101100011 "
b101100011 5
b101100011 ;
b11 6
b101 :
b101100011 7
b10111 B
1%
#1260
0%
b101100001 $
b101100001 3
b11000 ,
#1265
r13 =
r13 C
b101100001 "
b101100001 5
b101100001 ;
b1 6
b101 :
b101100001 7
b11000 B
1%
#1270
0%
b101011101 $
b101011101 3
b11001 ,
#1275
r14 =
r14 C
b101011101 "
b101011101 5
b101011101 ;
b11101 6
b101 :
b101011101 7
b11001 B
1%
#1280
0%
b101100001 $
b101100001 3
b11010 ,
#1285
r15 =
r15 C
b101100001 "
b101100001 5
b101100001 ;
b1 6
b101 :
b101100001 7
b11010 B
1%
#1290
0%
b101011110 $
b101011110 3
b11011 ,
#1295
r16 =
r16 C
b101011110 "
b101011110 5
b101011110 ;
b11110 6
b101 :
b101011110 7
b11011 B
1%
#1300
0%
b101100010 $
b101100010 3
b11100 ,
#1305
r17 =
r17 C
b101100010 "
b101100010 5
b101100010 ;
b10 6
b101 :
b101100010 7
b11100 B
1%
#1310
0%
b101011011 $
b101011011 3
b11101 ,
#1315
r18 =
r18 C
b101011011 "
b101011011 5
b101011011 ;
b11011 6
b101 :
b101011011 7
b11101 B
1%
#1320
0%
b101100000 $
b101100000 3
b11110 ,
#1325
r19 =
r19 C
b101100000 "
b101100000 5
b101100000 ;
b0 6
b101 :
b101100000 7
b11110 B
1%
#1330
0%
b101011101 $
b101011101 3
b11111 ,
#1335
r20 =
r20 C
b101011101 "
b101011101 5
b101011101 ;
b11101 6
b101 :
b101011101 7
b11111 B
1%
#1340
0%
b101011110 $
b101011110 3
b100000 ,
#1345
r21 =
r21 C
b101011110 "
b101011110 5
b101011110 ;
b11110 6
b101 :
b101011110 7
b100000 B
1%
#1350
0%
b101100000 $
b101100000 3
b100001 ,
#1355
r22 =
r22 C
b101100000 "
b101100000 5
b101100000 ;
b0 6
b101 :
b101100000 7
b100001 B
1%
#1360
0%
b101011111 $
b101011111 3
b100010 ,
#1365
r23 =
r23 C
b101011111 "
b101011111 5
b101011111 ;
b11111 6
b101 :
b101011111 7
b100010 B
1%
#1370
0%
b101011101 $
b101011101 3
b100011 ,
#1375
r24 =
r24 C
b101011101 "
b101011101 5
b101011101 ;
b11101 6
b101 :
b101011101 7
b100011 B
1%
#1380
0%
b101011011 $
b101011011 3
b100100 ,
#1385
r25 =
r25 C
b101011011 "
b101011011 5
b101011011 ;
b11011 6
b101 :
b101011011 7
b100100 B
1%
#1390
0%
b101011100 $
b101011100 3
b100101 ,
#1395
r26 =
r26 C
b101011100 "
b101011100 5
b101011100 ;
b11100 6
b101 :
b101011100 7
b100101 B
1%
#1400
0%
b101100000 $
b101100000 3
b100110 ,
#1405
r27 =
r27 C
b101100000 "
b101100000 5
b101100000 ;
b0 6
b101 :
b101100000 7
b100110 B
1%
#1410
0%
b101011100 $
b101011100 3
b100111 ,
#1415
r28 =
r28 C
b101011100 "
b101011100 5
b101011100 ;
b11100 6
b101 :
b101011100 7
b100111 B
1%
#1420
0%
b101100001 $
b101100001 3
b101000 ,
#1425
r29 =
r29 C
b101100001 "
b101100001 5
b101100001 ;
b1 6
b101 :
b101100001 7
b101000 B
1%
#1430
0%
b101100011 $
b101100011 3
b101001 ,
#1435
r30 =
r30 C
b101100011 "
b101100011 5
b101100011 ;
b11 6
b101 :
b101100011 7
b101001 B
1%
#1440
0%
b101011110 $
b101011110 3
b101010 ,
#1445
r31 =
r31 C
b101011110 "
b101011110 5
b101011110 ;
b11110 6
b101 :
b101011110 7
b101010 B
1%
#1450
0%
b101100001 $
b101100001 3
b101011 ,
#1455
r32 =
r32 C
b101100001 "
b101100001 5
b101100001 ;
b1 6
b101 :
b101100001 7
b101011 B
1%
#1460
0%
b101100000 $
b101100000 3
b101100 ,
#1465
r33 =
r33 C
b101100000 "
b101100000 5
b101100000 ;
b0 6
b101 :
b101100000 7
b101100 B
1%
#1470
0%
b101011010 $
b101011010 3
b101101 ,
#1475
r34 =
r34 C
b101011010 "
b101011010 5
b101011010 ;
b11010 6
b101 :
b101011010 7
b101101 B
1%
#1480
0%
b101110 ,
#1485
1%
#1490
0%
b101011011 $
b101011011 3
b101111 ,
#1495
r35 =
r35 C
b101011011 "
b101011011 5
b101011011 ;
b11011 6
b101 :
b101011011 7
b101110 B
1%
#1500
0%
b101100011 $
b101100011 3
b110000 ,
#1505
r36 =
r36 C
b101100011 "
b101100011 5
b101100011 ;
b11 6
b101 :
b101100011 7
b101111 B
1%
#1510
0%
b101100001 $
b101100001 3
b110001 ,
#1515
r37 =
r37 C
b101100001 "
b101100001 5
b101100001 ;
b1 6
b101 :
b101100001 7
b110000 B
1%
#1520
0%
b110010 ,
#1525
1%
#1530
0%
b101011101 $
b101011101 3
b110011 ,
#1535
r38 =
r38 C
b101011101 "
b101011101 5
b101011101 ;
b11101 6
b101 :
b101011101 7
b110001 B
1%
